EN kyi_mul NULL D:/fpga_labs/kyi_lab4/ipcore_dir/kyi_mul.vhd sub00/vhpl02 1479413237
EN kyi_reg_32 NULL D:/fpga_labs/kyi_lab4/kyi_reg_32.vhd sub00/vhpl22 1479545821
AR kyi_mulc kyi_mulc_a D:/fpga_labs/kyi_lab4/ipcore_dir/kyi_mulc.vhd sub00/vhpl05 1479413240
AR kyi_count behavioral D:/fpga_labs/kyi_lab4/kyi_count.vhd sub00/vhpl21 1479545573
AR kyi_mul kyi_mul_a D:/fpga_labs/kyi_lab4/ipcore_dir/kyi_mul.vhd sub00/vhpl03 1479413238
AR bus_8_32 behavioral D:/fpga_labs/kyi_lab4/bus_8_32.vhd sub00/vhpl25 1479545955
AR kyi_b2 kyi_b2_a D:/fpga_labs/kyi_lab4/ipcore_dir/kyi_b2.vhd sub00/vhpl01 1479413236
AR kyi_mux_32 behavioral D:/fpga_labs/kyi_lab4/kyi_mux_32.vhd sub00/vhpl27 1479546182
EN fd8ce_mxilinx_kyi_sch_konv NULL D:/fpga_labs/kyi_lab4/kyi_sch_konv.vhf sub00/vhpl10 1479413245
AR kyi_ram_32 behavioral D:/fpga_labs/kyi_lab4/kyi_ram_32.vhd sub00/vhpl19 1479545398
EN add16_mxilinx_kyi_sch_konv NULL D:/fpga_labs/kyi_lab4/kyi_sch_konv.vhf sub00/vhpl08 1479413243
AR kyi_reg_32 behavioral D:/fpga_labs/kyi_lab4/kyi_reg_32.vhd sub00/vhpl23 1479545822
AR fd8ce_mxilinx_kyi_sch_konv behavioral D:/fpga_labs/kyi_lab4/kyi_sch_konv.vhf sub00/vhpl11 1479413246
EN kyi_b2 NULL D:/fpga_labs/kyi_lab4/ipcore_dir/kyi_b2.vhd sub00/vhpl00 1479413235
EN kyi_sch_konv NULL D:/fpga_labs/kyi_lab4/kyi_sch_konv.vhf sub00/vhpl14 1479413249
AR kyi_sch_konv behavioral D:/fpga_labs/kyi_lab4/kyi_sch_konv.vhf sub00/vhpl15 1479413250
EN kyi_rom NULL D:/fpga_labs/kyi_lab4/kyi_rom.vhd sub00/vhpl16 1479558875
EN fd16ce_mxilinx_kyi_sch_konv NULL D:/fpga_labs/kyi_lab4/kyi_sch_konv.vhf sub00/vhpl06 1479413241
EN kyi_mulc NULL D:/fpga_labs/kyi_lab4/ipcore_dir/kyi_mulc.vhd sub00/vhpl04 1479413239
AR add16_mxilinx_kyi_sch_konv behavioral D:/fpga_labs/kyi_lab4/kyi_sch_konv.vhf sub00/vhpl09 1479413244
AR kyi_mul4_32 behavioral D:/fpga_labs/kyi_lab4/kyi_ram4_32.vhd sub00/vhpl29 1479546521
AR kyi_rom behavioral D:/fpga_labs/kyi_lab4/kyi_rom.vhd sub00/vhpl17 1479558876
EN adsu8_mxilinx_kyi_sch_konv NULL D:/fpga_labs/kyi_lab4/kyi_sch_konv.vhf sub00/vhpl12 1479413247
EN bus_8_32 NULL D:/fpga_labs/kyi_lab4/bus_8_32.vhd sub00/vhpl24 1479545954
AR adsu8_mxilinx_kyi_sch_konv behavioral D:/fpga_labs/kyi_lab4/kyi_sch_konv.vhf sub00/vhpl13 1479413248
AR fd16ce_mxilinx_kyi_sch_konv behavioral D:/fpga_labs/kyi_lab4/kyi_sch_konv.vhf sub00/vhpl07 1479413242
EN kyi_mul4_32 NULL D:/fpga_labs/kyi_lab4/kyi_ram4_32.vhd sub00/vhpl28 1479546520
EN kyi_mux_32 NULL D:/fpga_labs/kyi_lab4/kyi_mux_32.vhd sub00/vhpl26 1479546181
EN kyi_ram_32 NULL D:/fpga_labs/kyi_lab4/kyi_ram_32.vhd sub00/vhpl18 1479545397
EN kyi_count NULL D:/fpga_labs/kyi_lab4/kyi_count.vhd sub00/vhpl20 1479545572
