V3 14
FL D:/fgpa_labs/KhYuI_lab1/KhYuI_m1.vhd 2016/09/24.14:06:09 P.20131013
FL D:/fgpa_labs/KhYuI_lab1/KhYuI_sch1.vhf 2016/09/24.13:32:29 P.20131013
FL D:/fpga_labs/KhYuI_lab1/KhYuI_m1.vhd 2016/09/24.14:06:09 P.20131013
EN work/KhYuI_m1 1475068161 FL D:/fpga_labs/KhYuI_lab1/KhYuI_m1.vhd \
      PB ieee/std_logic_1164 1381692176
AR work/KhYuI_m1/Behavioral 1475068162 \
      FL D:/fpga_labs/KhYuI_lab1/KhYuI_m1.vhd EN work/KhYuI_m1 1475068161
FL D:/fpga_labs/KhYuI_lab1/KhYuI_sch1.vhf 2016/09/28.11:28:48 P.20131013
EN work/KhYuI_sch1 1475065710 FL D:/fpga_labs/KhYuI_lab1/KhYuI_sch1.vhf \
      PB ieee/std_logic_1164 1381692176 PB ieee/NUMERIC_STD 1381692181 LB UNISIM \
      PH unisim/VCOMPONENTS 1381692182
AR work/KhYuI_sch1/BEHAVIORAL 1475065711 \
      FL D:/fpga_labs/KhYuI_lab1/KhYuI_sch1.vhf EN work/KhYuI_sch1 1475065710 \
      CP NAND2 CP INV CP OR2 CP AND2 CP XOR2
